Case #1: 1 0
Case #2: 1 0
Case #3: 1 1
Case #4: 0 0
Case #5: 500 499
Case #6: 1 0
Case #7: 1 0
Case #8: 1 1
Case #9: 0 0
Case #10: 1 1
Case #11: 500000000000000000 499999999999999999
Case #12: 0 0
Case #13: 1 0
Case #14: 0 0
Case #15: 250000000000000000 249999999999999999
Case #16: 0 0
Case #17: 1 1
Case #18: 250000000000000000 249999999999999999
Case #19: 1 1
Case #20: 1 1
Case #21: 0 0
Case #22: 0 0
Case #23: 0 0
Case #24: 1 1
Case #25: 125000000000000000 124999999999999999
Case #26: 0 0
Case #27: 0 0
Case #28: 0 0
Case #29: 1 1
Case #30: 1 1
Case #31: 0 0
Case #32: 1 1
Case #33: 7812500000000000 7812499999999999
Case #34: 250000000000000000 249999999999999999
Case #35: 0 0
Case #36: 1 0
Case #37: 1 0
Case #38: 0 0
Case #39: 0 0
Case #40: 0 0
Case #41: 0 0
Case #42: 1 1
Case #43: 2 1
Case #44: 0 0
Case #45: 1 1
Case #46: 0 0
Case #47: 0 0
Case #48: 0 0
Case #49: 1 0
Case #50: 0 0
Case #51: 1 1
Case #52: 2 2
Case #53: 1 0
Case #54: 7812500000000000 7812499999999999
Case #55: 0 0
Case #56: 3906250000000000 3906249999999999
Case #57: 1 1
Case #58: 1 1
Case #59: 1 1
Case #60: 0 0
Case #61: 2 2
Case #62: 0 0
Case #63: 3906250000000000 3906249999999999
Case #64: 1 0
Case #65: 0 0
Case #66: 1 0
Case #67: 500000000000000000 499999999999999999
Case #68: 0 0
Case #69: 0 0
Case #70: 0 0
Case #71: 0 0
Case #72: 1 0
Case #73: 0 0
Case #74: 0 0
Case #75: 2 2
Case #76: 0 0
Case #77: 0 0
Case #78: 0 0
Case #79: 0 0
Case #80: 0 0
Case #81: 1 0
Case #82: 1953125000000000 1953124999999999
Case #83: 0 0
Case #84: 0 0
Case #85: 1 1
Case #86: 0 0
Case #87: 0 0
Case #88: 1 0
Case #89: 1 0
Case #90: 3906249999999999 3906249999999999
Case #91: 2 2
Case #92: 0 0
Case #93: 0 0
Case #94: 0 0
Case #95: 0 0
Case #96: 0 0
Case #97: 0 0
Case #98: 0 0
Case #99: 0 0
Case #100: 0 0
